{
  "images" : [
    {
      "idiom" : "iphone",
      "filename" : "ic_home_66.png",
      "scale" : "1x"
    },
    {
      "idiom" : "iphone",
      "filename" : "ic_home_66-4.png",
      "scale" : "2x"
    },
    {
      "idiom" : "iphone",
      "filename" : "ic_home_66-3.png",
      "scale" : "3x"
    },
    {
      "idiom" : "ipad",
      "filename" : "ic_home_44-1.png",
      "scale" : "1x"
    },
    {
      "idiom" : "ipad",
      "filename" : "ic_home_66-5.png",
      "scale" : "2x"
    }
  ],
  "info" : {
    "version" : 1,
    "author" : "xcode"
  }
}